Country,1986,1987,1988,1989,1990,1991,1992,1993,1994,1995,1996,1997,1998,1999,2000,2001,2002,2003,2004,2005,2006,2007,2008,2009,2010,2011,2012,2013,2014,2015,2016,2017
European Union,33.64,27.96,36.47,45.21,30.96,27.07,27.09,34.17,18.83,18.88,5.93,3.43,4.1,5.15,5.49,4.51,3.29,1.6,1.31,3.07,2.24,-0.61,1.66,1.65,0.88,1.07,1.02,-0.4,-0.16,0,-0.83,-0.4
United States,-0.79,6.43,7.5,0.6,1.6,3.22,5.26,12.04,10.52,9.05,0.99,0,-0.01,0,0,0,0,0,0,0,0,0,0,0,0,0,0,0,0,0,0,0
Brazil,,,,,,,,,,,,,,,,,,,,,,,,,,,,,,,,
Switzerland,79.37,77.21,80,78.32,74.68,73.52,76.92,76.33,76.56,75.59,70.17,71.41,71.55,73.38,59.5,67.96,59.81,59.66,63.28,64.84,65.04,62.5,67.32,65.82,69.36,73.59,64.02,70.98,69.72,72.48,75.24,69.11
China,0,0,0,0,0,0,0,1.12,0.14,-0.75,1.52,0.47,0.14,0.17,-0.58,-0.52,-0.7,-0.83,-0.26,-0.54,-0.79,-0.49,0.55,-0.41,-2.73,-0.13,-5.93,-8.31,-6.78,-9.27,-7.81,-2.53
Colombia,0,0,0,0,0,0,12.13,-16.8,9.62,14.96,-6.04,11.29,17.81,5.54,7,-4.23,5.44,-29.29,-1.08,24.03,14.5,12.06,12.49,12.31,12.48,12.1,12.64,12.63,12.59,12.45,12.08,11.56
Costa Rica,,,,,,,,,,,,,,,,,,,,,,,,,,,,,,,,
Iceland,82.91,78.38,84.37,86.07,81.69,80.69,81.41,82.6,79.69,80.09,70.84,71.85,76.07,77.41,71.92,62.44,60.85,65.25,75.69,80.52,76.48,72.62,58.62,56.62,62.32,64.98,53.19,65.11,66.84,69.82,76.02,69.3
Israel,0,0,0,0,0,0,0,0,0,12.52,2.18,13.72,19.07,16.46,13.07,20.17,13.28,-12.04,10.42,10.33,2.13,-4.61,13.06,-6.98,7.66,11.16,-14.42,12.44,10.57,13.85,20.64,8.44
Japan,16.92,17.3,16.89,16.67,16.67,16.76,17.36,17.1,16.9,16.44,16.01,15.71,15.84,14.94,14.64,15.04,14.91,15.2,14.55,14.59,14.58,14.69,14.64,14.89,14.45,14.96,15.33,15.19,14.42,14.52,14.59,14.47
Kazakhstan,0,0,0,0,0,0,0,0,0,68.07,9.76,10.63,-0.85,15.16,13.75,8.79,-7.43,70.94,34.66,12.13,22.03,36.13,45.94,20.01,29.92,24.28,12.41,10.71,15.77,13.69,18.6,3.81
"Korea, South",-29.87,1.39,-3.87,29.8,15.45,-1.55,31.45,4.43,8.92,11.27,9.07,11.67,14.31,-6.01,-18.2,13.6,3.72,15.85,28.08,24.03,21.85,25.79,15.72,13.27,6.24,12.72,3.05,24.92,31.52,26.14,11.82,43.38
Mexico,-0.68,-3.34,-1.53,-2.91,-3.66,-1.75,4.82,4.43,-0.5,-0.95,1.7,-0.25,-1.03,-4.31,-3.69,-0.48,-2.86,-0.05,-0.67,0,-0.16,0,0,-0.22,0,-0.49,0,9.5,0,0,-0.13,0
Norway,51.51,46.46,59.94,60.4,41,49.89,54.17,45.82,39.48,47,29.53,38.78,42.32,48.71,36.45,41.25,45.69,33.17,47.37,48.43,48.24,49.52,45.63,34.77,46.02,53.14,38.76,47.69,44.13,37.07,43.29,28.37
New Zealand,47.42,30.55,40.11,43.31,19.83,22.29,15.06,11.65,15.53,23.84,5.88,22.23,21.81,27.31,0,13.86,7.43,0,21.4,32.21,17.87,15.94,2.63,0,13.19,16.32,0,19.47,22.96,21.68,33.6,19.87
Philippines,0,0,0,0,0,0,0,0,0,0,0,0,0,0,9.33,-3.05,7.24,4.97,6.36,6.77,3.93,4.97,4.32,4.23,5.23,4.93,4.52,3.56,3.51,4.99,3.53,4.09
Russia,63.66,54.86,62.91,56.55,31.68,33.6,70.45,31.52,12.1,22.82,7.67,20.59,5.56,8.36,4.91,3.76,8.07,9.44,1.48,5.72,3.68,9.09,11.85,1.73,1.15,7.06,4.42,3.63,3.78,3.44,1.83,1.74
Turkey,14.94,5.46,11.4,40.64,22.4,-1.72,34.88,30.73,20.09,48.85,20.8,21.98,23.89,23.67,30.93,26.01,24.33,6.53,33.11,31.66,21.66,6.64,33.57,22.61,30.79,41.85,25.4,18.03,-10.67,-5.48,-4.89,-0.91
Ukraine,58.39,49.29,56.21,57.87,17.73,29.52,47.63,-2.73,5.76,17.53,15.98,39.73,47.5,29.62,-1.41,7.71,3.21,-4.58,4.01,15.15,2.56,16.79,12.57,3.97,7.79,29.84,8.95,9.17,8.91,6.22,9.51,24.61
Vietnam,0,0,0,0,0,0,0,0,0,0,0,0,0,0,55.31,54.96,58.64,57.83,54.15,57.65,60.37,56.49,56.71,48.87,32.71,26.12,4.85,19.17,-18.81,-3.18,5.12,32.32
South Africa,0,0,0,0,0,0,0,0,-0.01,-9.78,-0.02,-0.01,0,-0.04,-0.04,-0.18,-3.71,-0.01,-0.01,-0.11,0,0,0,0,0,0,0,-0.02,-0.04,0,0,0
Indonesia,0,0,0,0,40.99,-54.36,-50.49,-42.84,-0.05,27.97,2.89,-24.97,-114.81,-42.69,-32.66,-42.81,-88.21,-0.87,-9.63,-15.63,9.75,22.47,20.76,12.03,12.31,11,11.21,-7.2,-7.93,7.23,0,