Country,1986,1987,1988,1989,1990,1991,1992,1993,1994,1995,1996,1997,1998,1999,2000,2001,2002,2003,2004,2005,2006,2007,2008,2009,2010,2011,2012,2013,2014,2015,2016,2017
European Union,50.93,60.41,41.61,35.67,47.72,50.78,51.05,45.62,41.7,45.43,27.75,31.57,39.12,40.85,30.64,25.15,24.49,35.93,10.44,14.49,10.1,23.36,0.01,0.02,0.01,0.01,0,0,0,0,0,0.01
United States,41.84,39.2,23.41,18.09,15.23,11.04,15.93,11.52,12.22,1.21,0.07,0.21,8.57,13.34,13.04,7.25,4.18,1.25,10.86,16.7,0.43,-0.45,4.21,4.46,2.68,3.64,3.7,4.64,4.02,4.4,4.17,4.29
Brazil,0,0,0,0,0,0,0,0,0,6.36,9.58,10.25,27.03,9.23,25.48,6.12,4.61,7.1,4.04,20.52,5.88,3.18,5.94,2.2,1.88,1.77,1.01,2.43,2.39,1.34,10.22,1.47
Switzerland,66.08,71.75,75.02,68.69,66.29,67.09,60.98,63.7,54.2,56.53,48.09,53.79,60.32,56.23,47.68,36.3,50.04,53.7,43.57,47.34,43.86,18.16,9.23,24.36,31.69,15.21,23.73,14.77,6.25,23.22,23.81,22.2
China,0,0,0,0,0,0,0,-55.48,-1.15,25.61,-47.61,0.21,10.09,2.68,20.54,16.96,24.98,29.02,8.96,22.46,26.22,17.18,-15.51,16.31,15.33,0.93,13.15,23.09,26.13,31.35,29.76,12.57
Colombia,0,0,0,0,0,0,39.95,41.45,48.95,34.87,27.98,38.95,40.19,45.25,43.93,44.13,38.45,26.87,26.08,42.02,43.53,37.5,21.95,33.27,34.82,37.34,19.56,21.92,32.6,40.69,45.87,55.27
Costa Rica,,,,,,,,,,,,,,,,,,,,,,,,,,,,,,,,
Iceland,,,,,,,,,,,,,,,,,,,,,,,,,,,,,,,,
Israel,,,,,,,,,,,,,,,,,,,,,,,,,,,,,,,,
Japan,,,,,,,,,,,,,,,,,,,,,,,,,,,,,,,,
Kazakhstan,0,0,0,0,0,0,0,0,0,-57.12,-16.59,-6.88,8.26,-27.61,-6.33,-1.81,-18.49,-71.87,-35.8,-1.27,9.42,-3.96,-60.82,-11.27,-21.39,-47.44,-31.96,13.32,-39.44,-13.51,-5.39,-27.44
"Korea, South",,,,,,,,,,,,,,,,,,,,,,,,,,,,,,,,
Mexico,12.37,39.34,12.74,15.9,36.15,40.44,43.64,44.61,23.45,6.14,-20.06,5.79,7.41,12.06,22.47,14.96,24.24,3.34,3.86,8.76,9.5,2.35,4.99,7.95,8.3,8.58,2.46,4.52,5.32,8.72,3.17,1.27
Norway,,,,,,,,,,,,,,,,,,,,,,,,,,,,,,,,
New Zealand,0,0,0,0,0,0,0,0,0,0,0,0,0,0,0,0,0,0,0,0,0,0,0,0,0,0,0,0,0,0,0,0
Philippines,0,0,0,0,0,0,0,0,0,0,0,0,0,0,49.44,48.19,10.89,33.69,-14.5,-39.97,38.62,12.06,34.11,25.73,-11.12,7.53,1.59,17.26,4.89,-32.31,24.58,30.18
Russia,83.85,79.61,84.89,83.89,88.74,84.61,-80.76,-38.36,28.4,17.26,31.65,26.24,-4.5,-31.42,-20.34,-8.99,-39.6,-55.19,-16.13,-43.07,-16.71,-2.5,-37.59,10.2,7.4,-19.56,-6.85,1.99,-11.64,-6.99,-13.79,-2.89
Turkey,8.07,15.4,17.38,14.46,28.76,39.05,36.11,24.68,0,6.78,14.69,31.43,38.65,32.79,27.64,4.42,14.48,37.43,40.54,39.06,48.25,42.6,15.66,31.64,31.75,10.75,6.35,5.13,18.11,17.07,9.62,2.95
Ukraine,86.16,87.14,78.2,81.58,84.41,80.09,-18.84,44.58,26.63,-30.19,-10.82,-26.55,-18.6,1.55,-20.04,-5.34,-6.43,5.6,-33.73,-6.48,20.06,-2.6,-43.27,-3.98,-7.22,-32.8,-17,-30.33,-14.83,-3.81,-1.52,-4.58
Vietnam,0,0,0,0,0,0,0,0,0,0,0,0,0,0,28.16,12.88,-7.81,10.96,18.55,23.76,12.71,1.05,27.24,25.48,30.28,7.94,22.17,-2.47,30.38,55.96,61.52,43.21
South Africa,0,0,0,0,0,0,0,0,0,19.25,0,7.61,0,3.69,0,0.97,22.94,0.55,14.3,0,19.3,0,0,0,0,0,0,0,0,0,0,0
Indonesia,0,0,0,0,-52,-5.94,-13.65,2.21,12.51,6.4,-16.65,5.37,-120.62,6.59,-0.46,-1.94,9.76,16.93,19.24,13.7,31.61,23.51,-17.53,23.91,37.1,20.49,24.79,24.63,42.26,42.98,0,