Country,1986,1987,1988,1989,1990,1991,1992,1993,1994,1995,1996,1997,1998,1999,2000,2001,2002,2003,2004,2005,2006,2007,2008,2009,2010,2011,2012,2013,2014,2015,2016,2017
European Union,71.27,76.78,60.83,41.36,46.96,47.74,44.94,45.12,45.56,45.89,58.72,45.75,52.92,52.14,40.88,28.3,45.82,44.85,41.35,29.33,21.03,0.33,10.3,1.53,1.51,1.27,1.41,1.48,1.61,3.98,5.27,2.29
United States,34.2,33.96,36.66,71.17,36.92,39.88,37.41,35.65,32.63,24.17,39.83,41.65,53.36,53.14,49.92,45.35,39.69,31.24,27.55,19.11,13.7,24.32,0.02,11.86,14.53,6.69,13.66,5.65,13.45,18.36,19.93,19.73
Brazil,0,0,0,0,0,0,0,0,0,26.09,16.95,10.44,13.47,1.67,2.27,0.68,1.17,-0.45,0.84,-0.66,0.62,-1.74,0.41,30.75,13.93,8.42,11.29,0.33,0.6,0.87,1.14,0.01
Switzerland,83.93,85.03,87.99,64.94,77.07,75.26,67,71.57,69.8,55.4,71.22,68.31,69.79,75.95,60.06,56.17,63.86,55.43,54.16,49.35,47.21,11.59,29.77,39.49,12.04,21.32,28.11,13.15,32.83,44.24,39.04,19.74
China,0,0,0,0,0,0,0,30.82,62.24,53.47,70.17,58.35,51.3,35.29,43.58,19.77,46.35,31.27,8.88,-6.01,6.88,-28.78,-22.29,32.29,9.74,13.38,26.63,25.44,24.26,45.02,45.43,28.76
Colombia,0,0,0,0,0,0,43.35,48.03,54.8,53.54,57.01,56.31,52.41,49.6,43.21,22.01,30.92,13.55,10.05,17.01,16.3,9.67,15.59,32.58,27.39,23.57,32.37,21.7,25.29,21.66,14.15,-0.65
Costa Rica,0,0,0,0,0,0,0,0,0,0,1.97,0,0,0,0,0,0,0,0,0,8.82,0,8.47,0,23.32,34.16,8.07,6.24,0,15.78,0,0
Iceland,90.99,91.12,83.33,76.23,82.81,84.55,80.3,80.85,78.95,69.51,75.85,76.41,80.98,82.24,77.29,68.99,84.23,79.76,76.58,79.15,74.72,55.71,60.09,57.32,50.11,50.49,55.6,44.5,57.71,70.28,68.46,61.16
Israel,0,0,0,0,0,0,0,0,0,47.98,63.63,62.46,64.1,62.46,57.23,46.39,63.74,47.1,37.41,37.25,31.02,-15,34.29,30.83,17.33,22.81,32.11,17.48,30.94,52.69,39.55,24.28
Japan,88.11,88.13,81.7,69.84,73.56,73.97,73.01,75.76,77.15,76.34,67.45,65.68,67.06,69.07,71.36,51.63,72.41,59.52,56.19,56.97,53.13,35.89,49.03,54.43,54.95,54.13,63.77,45.4,51.33,60.02,63.41,56.57
Kazakhstan,0,0,0,0,0,0,0,0,0,53.6,46.62,70.08,75.5,63.15,58.88,47.03,62.97,29.77,20.32,21.06,10.01,0.65,1.01,21.87,1.14,1.19,3.51,1.74,2.26,21.36,3.06,1.89
"Korea, South",66.69,69.5,67.27,64.89,57.63,76.35,63.98,64.45,67.15,60.97,59.29,59.55,54.9,60.73,67.74,50.8,61.28,60.15,59.8,59.37,62.91,51.25,29.21,53.51,44.44,43.47,52.27,50.68,51.96,62.79,62.97,57.38
Mexico,78.94,74.1,59.36,23.64,8.05,32.35,32.22,42.36,40.44,-14.96,5.99,22.45,37.04,38.06,37.27,22.64,41.88,24.57,5.05,1.84,9.48,0,0.41,11.02,0.01,-0.32,3.71,0,0,16.35,-0.07,0
Norway,72.15,73.44,67.9,61,72.49,72.99,69.14,68.26,69.26,60.14,69.76,67.59,65.58,65.29,58.32,53.73,72.9,64.93,56.64,56.15,52.8,25.67,44.85,46.84,43.44,45.11,55.08,41.03,49.32,60.18,52.02,37.74
New Zealand,4.15,1.05,0,0,0,0,0,0,0,0,0,0,0,0,0,0,0,0,0,0,0,0,0,0,0,0,0,0,0,0,0,0
Philippines,,,,,,,,,,,,,,,,,,,,,,,,,,,,,,,,
Russia,86,83.52,84.72,82.17,77.8,60.83,52.43,31.88,16.48,28.54,30.89,39.65,31.88,10.89,30.01,3.16,5.61,27.93,35.58,13.34,25.48,37.06,33.54,24.62,20.57,24.84,21.04,9.34,17.29,23.29,38.48,22.34
Turkey,58.57,44.86,55.41,49.73,73.6,78.66,64.93,48.44,54.06,51.8,50.83,48.34,51.89,56.16,55.17,-0.16,36.06,35.28,31.15,28.48,25.16,2.2,34.65,34.56,29.73,20.98,13.13,-1.99,-3.51,-1.74,-2.7,-0.97
Ukraine,80.51,77.68,71.77,74.61,67.37,64.83,-62.19,11.81,-44.32,-68.66,-48.96,-9.84,-10.73,-13.41,-25.72,-15.09,-6.24,-12.28,-10.19,6.54,7.27,-22.4,15.55,7.4,-3.4,-9.78,-7.04,-26.47,-48.55,-29.1,-28.53,-32.19
Vietnam,,,,,,,,,,,,,,,,,,,,,,,,,,,,,,,,
South Africa,0,0,0,0,0,0,0,0,44.13,31.52,25.53,42.5,54.63,23.31,26.1,-1.27,37.89,31.96,20.2,9.56,13.83,0,0,17.69,0,0,9.51,-0.01,-0.03,17.23,0,0
Indonesia,0,0,0,0,23.85,31.48,10.68,13.8,26.54,3.41,-0.56,10.48,-30,0.49,-7.48,-63.12,14.64,14.62,-6.43,-1.63,15.1,-32.62,-49.8,4.78,-22.82,-20.01,-5.9,-41.74,-28.73,13.34,0,