Country,1986,1987,1988,1989,1990,1991,1992,1993,1994,1995,1996,1997,1998,1999,2000,2001,2002,2003,2004,2005,2006,2007,2008,2009,2010,2011,2012,2013,2014,2015,2016,2017
European Union,63.11,73.4,70.72,63.57,59.27,58.95,59.79,52.84,57.88,63.38,57.16,47.74,51.38,51.94,51.25,35.16,47.73,42.68,43.53,31.15,30.61,31.06,27.45,31.32,19.07,6.31,6.2,14.51,9.04,11.59,24.44,11.01
United States,1.3,0.94,1.19,0.99,1.28,1.33,1.18,1.06,1.07,0.86,0.76,0.67,0.89,12.27,11.45,15.08,15.21,9,12.81,9,9,9,9,9,9,9,9,9.14,9.09,9,9.02,9.06
Brazil,,,,,,,,,,,,,,,,,,,,,,,,,,,,,,,,
Switzerland,64.2,72.32,68.97,67.86,68.34,69.79,69.21,66.32,64.73,72.3,63.2,54.71,58.84,60.79,65.7,56.84,50.83,43.01,35.15,30.12,31.91,40.76,38.98,38.52,28.19,13.09,19.62,30.27,28.39,36.91,47.81,37.44
China,0,0,0,0,0,0,0,36.38,31.21,27.23,26.05,18.67,17.57,18.51,16.29,13.72,12.1,11.89,13.85,12.53,11.64,12.78,15.5,13.25,14.03,14.4,14.13,13.99,14.06,13.88,14.05,14.42
Colombia,,,,,,,,,,,,,,,,,,,,,,,,,,,,,,,,
Costa Rica,,,,,,,,,,,,,,,,,,,,,,,,,,,,,,,,
Iceland,63.07,76.73,75.91,73.18,64.91,74.39,68.12,59.54,52.43,61.54,53.3,49.9,69.02,70.16,70.38,59.74,50.15,49.04,53.97,50.49,52.82,49.61,48.66,50.07,48.08,43.6,42.06,41.02,40.92,41.75,43.63,50.68
Israel,0,0,0,0,0,0,0,0,0,33.32,31.89,31.59,31.54,30.57,32.38,31.96,32.42,32.08,32.18,33.01,33.02,33.84,34.19,32.33,32.97,32.55,22.87,22.26,14.61,13.94,12.41,13.23
Japan,,,,,,,,,,,,,,,,,,,,,,,,,,,,,,,,
Kazakhstan,0,0,0,0,0,0,0,0,0,-0.1,0.36,0.37,19.98,0.13,5.63,0.31,-0.26,2.82,0.84,0,2.32,14.92,15.27,-0.33,0.27,0.26,30.65,26.14,22.1,16.67,3.42,2.81
"Korea, South",,,,,,,,,,,,,,,,,,,,,,,,,,,,,,,,
Mexico,,,,,,,,,,,,,,,,,,,,,,,,,,,,,,,,
Norway,58.01,61.77,42.61,48.19,39.84,48.39,30.26,53.9,47.82,57.35,47.18,31.62,38.39,45.44,46.59,38,31.32,31.53,21.94,21.53,30.93,40.15,43.62,35.51,24.27,6.94,20.18,29.86,22.04,15.93,26.3,12.08
New Zealand,0,0,0,0,0,0,0,0,0,0,0,0,0,0,0,0,0,0,0,0,0,0,0,0,0,0,0,0,0,0,0,0
Philippines,,,,,,,,,,,,,,,,,,,,,,,,,,,,,,,,
Russia,,,,,,,,,,,,,,,,,,,,,,,,,,,,,,,,
Turkey,9.06,17.33,7.26,17.98,16.41,15.33,7.6,16.8,18.89,21.78,-2.51,-4.75,4.24,15.91,26.59,-0.86,-1.11,-4.06,-6.4,-7.02,2.31,16.01,-7.12,5.73,18.6,-2.05,-1.31,-5.07,-3.16,3.39,21.67,0.67
Ukraine,,,,,,,,,,,,,,,,,,,,,,,,,,,,,,,,
Vietnam,,,,,,,,,,,,,,,,,,,,,,,,,,,,,,,,
South Africa,0,0,0,0,0,0,0,0,54.06,40.93,12.1,29.46,34.27,15.08,37.57,0,0,0,0,2.54,24.73,13.12,0,0,0,0,2.75,0,0,0,0,0
Indonesia,,,,,,,,,,,,,,,,,,,,,,,,,,,,,,,,